Aprende Tidyverse – Si usas dplyr, debes aprender a usar across y where
…
Rows: 344
Columns: 5
$ largo_pico_mm   <dbl> 39.1, 39.5, 40.3, NA, 36.7, 39.3, 38.9, 39.2, 34.1, 42…
$ alto_pico_mm    <dbl> 18.7, 17.4, 18.0, NA, 19.3, 20.6, 17.8, 19.6, 18.1, 20…
$ largo_aleta_mm  <int> 181, 186, 195, NA, 193, 190, 181, 195, 193, 190, 186, …
$ masa_corporal_g <int> 3750, 3800, 3250, NA, 3450, 3650, 3625, 4675, 3475, 42…
$ anio            <int> 2007, 2007, 2007, 2007, 2007, 2007, 2007, 2007, 2007, …

Podemos, a la función where, pasar cualquier función que reciba un vector y retorne un TRUE/FALSE, lo cual es útil al combinarlo con las funciones que R ya nos provee para verificar tipos como is.numeric, is.factor, is.character, is.logical. O podríamos, ¿por qué no?, escribir nuestras propias funciones cortas.

Por ejemplo, quiero las columnas que no contengan valores ausentes NA.

select(pinguinos, where(\(x) all(!is.na(x))))

# A tibble: 344 × 3
   especie isla       anio
   <fct>   <fct>     <int>
 1 Adelia  Torgersen  2007
 2 Adelia  Torgersen  2007
 3 Adelia  Torgersen  2007
 4 Adelia  Torgersen  2007
 5 Adelia  Torgersen  2007
 6 Adelia  Torgersen  2007
 7 Adelia  Torgersen  2007
 8 Adelia  Torgersen  2007
 9 Adelia  Torgersen  2007
10 Adelia  Torgersen  2007
# ℹ 334 more rows

Ejemplo 2: Escalar todas las variables numéricas

pinguinos |> 
  mutate(
    across(
      where(is.numeric),
      \(x) as.vector(scale(x))
    )
  )

# A tibble: 344 × 8
   especie isla  largo_pico_mm alto_pico_mm largo_aleta_mm masa_corporal_g sexo 
   <fct>   <fct>         <dbl>        <dbl>          <dbl>           <dbl> <fct>
 1 Adelia  Torg…        -0.883        0.784         -1.42          -0.563  macho
 2 Adelia  Torg…        -0.810        0.126         -1.06          -0.501  hemb…
 3 Adelia  Torg…        -0.663        0.430         -0.421         -1.19   hemb…
 4 Adelia  Torg…        NA           NA             NA             NA      <NA> 
 5 Adelia  Torg…        -1.32         1.09          -0.563         -0.937  hemb…
 6 Adelia  Torg…        -0.847        1.75          -0.776         -0.688  macho
 7 Adelia  Torg…        -0.920        0.329         -1.42          -0.719  hemb…
 8 Adelia  Torg…        -0.865        1.24          -0.421          0.590  macho
 9 Adelia  Torg…        -1.80         0.480         -0.563         -0.906  <NA> 
10 Adelia  Torg…        -0.352        1.54          -0.776          0.0602 <NA> 
# ℹ 334 more rows
# ℹ 1 more variable: anio <dbl>
…
